{
  "9a3a92078cba80fe251c884c9f0012d3" : {
    "statistic" : {
      "failed" : 0,
      "broken" : 0,
      "skipped" : 0,
      "passed" : 1,
      "unknown" : 0,
      "total" : 1
    },
    "items" : [ {
      "uid" : "485fbaf2284a6f2e",
      "status" : "passed",
      "time" : {
        "start" : 1625995663837,
        "stop" : 1625995663838,
        "duration" : 1
      }
    } ]
  },
  "9d04fe6ae98597f88ec163dbeb08efcd" : {
    "statistic" : {
      "failed" : 1,
      "broken" : 0,
      "skipped" : 0,
      "passed" : 0,
      "unknown" : 0,
      "total" : 1
    },
    "items" : [ {
      "uid" : "278e8a8fad528957",
      "status" : "failed",
      "statusDetails" : "AssertionError: assert 6 == 5",
      "time" : {
        "start" : 1625995663827,
        "stop" : 1625995663827,
        "duration" : 0
      }
    } ]
  },
  "93cbe6741c40432197d7d57182d9a5d5" : {
    "statistic" : {
      "failed" : 0,
      "broken" : 0,
      "skipped" : 0,
      "passed" : 1,
      "unknown" : 0,
      "total" : 1
    },
    "items" : [ {
      "uid" : "d10ef080087d8014",
      "status" : "passed",
      "time" : {
        "start" : 1625995663799,
        "stop" : 1625995663799,
        "duration" : 0
      }
    } ]
  },
  "9bc691034059510db80d3030b5228778" : {
    "statistic" : {
      "failed" : 0,
      "broken" : 0,
      "skipped" : 0,
      "passed" : 1,
      "unknown" : 0,
      "total" : 1
    },
    "items" : [ {
      "uid" : "84b88b86097bbbc0",
      "status" : "passed",
      "time" : {
        "start" : 1625995663819,
        "stop" : 1625995663819,
        "duration" : 0
      }
    } ]
  },
  "5f13b47d087e20db76406d0f67c4a2cc" : {
    "statistic" : {
      "failed" : 0,
      "broken" : 0,
      "skipped" : 0,
      "passed" : 1,
      "unknown" : 0,
      "total" : 1
    },
    "items" : [ {
      "uid" : "e38307d3de79a664",
      "status" : "passed",
      "time" : {
        "start" : 1625995663815,
        "stop" : 1625995663816,
        "duration" : 1
      }
    } ]
  },
  "a005b9e5bd25d5f1bbddbfa5bdab615b" : {
    "statistic" : {
      "failed" : 0,
      "broken" : 0,
      "skipped" : 0,
      "passed" : 1,
      "unknown" : 0,
      "total" : 1
    },
    "items" : [ {
      "uid" : "e0e16bab93f9bf29",
      "status" : "passed",
      "time" : {
        "start" : 1625995663841,
        "stop" : 1625995663841,
        "duration" : 0
      }
    } ]
  },
  "c7214f311bc950fb7fdf4e8056dcf8a5" : {
    "statistic" : {
      "failed" : 0,
      "broken" : 0,
      "skipped" : 0,
      "passed" : 1,
      "unknown" : 0,
      "total" : 1
    },
    "items" : [ {
      "uid" : "407bc6b7d7adc129",
      "status" : "passed",
      "time" : {
        "start" : 1625995663796,
        "stop" : 1625995663796,
        "duration" : 0
      }
    } ]
  },
  "860d58e3d97b6160dd12b74e7e289ebe" : {
    "statistic" : {
      "failed" : 0,
      "broken" : 0,
      "skipped" : 0,
      "passed" : 1,
      "unknown" : 0,
      "total" : 1
    },
    "items" : [ {
      "uid" : "6cda50ce074778a6",
      "status" : "passed",
      "time" : {
        "start" : 1625995663690,
        "stop" : 1625995663690,
        "duration" : 0
      }
    } ]
  },
  "5ff63a1af914a90b31f1a13394fca397" : {
    "statistic" : {
      "failed" : 0,
      "broken" : 0,
      "skipped" : 0,
      "passed" : 1,
      "unknown" : 0,
      "total" : 1
    },
    "items" : [ {
      "uid" : "9b10e3380713110c",
      "status" : "passed",
      "time" : {
        "start" : 1625995663844,
        "stop" : 1625995663844,
        "duration" : 0
      }
    } ]
  },
  "eef219ed69c373a3d1355fb46fffcd94" : {
    "statistic" : {
      "failed" : 0,
      "broken" : 0,
      "skipped" : 0,
      "passed" : 1,
      "unknown" : 0,
      "total" : 1
    },
    "items" : [ {
      "uid" : "372c69c00ee40c9a",
      "status" : "passed",
      "time" : {
        "start" : 1625995663686,
        "stop" : 1625995663686,
        "duration" : 0
      }
    } ]
  },
  "44e5def5f323361a910ab9a843f67483" : {
    "statistic" : {
      "failed" : 1,
      "broken" : 0,
      "skipped" : 0,
      "passed" : 0,
      "unknown" : 0,
      "total" : 1
    },
    "items" : [ {
      "uid" : "a9d5540200cec8f3",
      "status" : "failed",
      "statusDetails" : "AssertionError: assert 1 == 2",
      "time" : {
        "start" : 1625995663805,
        "stop" : 1625995663806,
        "duration" : 1
      }
    } ]
  },
  "099ee167374346e1536a1bf8c6fc5ec6" : {
    "statistic" : {
      "failed" : 0,
      "broken" : 0,
      "skipped" : 0,
      "passed" : 1,
      "unknown" : 0,
      "total" : 1
    },
    "items" : [ {
      "uid" : "f3fb3070c4b8a8ff",
      "status" : "passed",
      "time" : {
        "start" : 1625995663696,
        "stop" : 1625995663696,
        "duration" : 0
      }
    } ]
  },
  "784eecda89abaf459f99d8ab6b17fb2b" : {
    "statistic" : {
      "failed" : 1,
      "broken" : 0,
      "skipped" : 0,
      "passed" : 0,
      "unknown" : 0,
      "total" : 1
    },
    "items" : [ {
      "uid" : "d7077bdd51e8b1e2",
      "status" : "failed",
      "statusDetails" : "AssertionError: assert 1.5 == 1",
      "time" : {
        "start" : 1625995663847,
        "stop" : 1625995663848,
        "duration" : 1
      }
    } ]
  },
  "ccea5abed542b17d42c3f0ade2553776" : {
    "statistic" : {
      "failed" : 0,
      "broken" : 0,
      "skipped" : 0,
      "passed" : 1,
      "unknown" : 0,
      "total" : 1
    },
    "items" : [ {
      "uid" : "1cdc34a7b413014f",
      "status" : "passed",
      "time" : {
        "start" : 1625995663823,
        "stop" : 1625995663823,
        "duration" : 0
      }
    } ]
  },
  "c59e7a342656d142e124d756ca3afe1e" : {
    "statistic" : {
      "failed" : 0,
      "broken" : 0,
      "skipped" : 0,
      "passed" : 1,
      "unknown" : 0,
      "total" : 1
    },
    "items" : [ {
      "uid" : "16ef82393c6130e7",
      "status" : "passed",
      "time" : {
        "start" : 1625995663812,
        "stop" : 1625995663812,
        "duration" : 0
      }
    } ]
  },
  "95b08e140ef4ddc01dbc8c17a2f183d0" : {
    "statistic" : {
      "failed" : 0,
      "broken" : 0,
      "skipped" : 0,
      "passed" : 1,
      "unknown" : 0,
      "total" : 1
    },
    "items" : [ {
      "uid" : "965e733f1b17f3b3",
      "status" : "passed",
      "time" : {
        "start" : 1625995663792,
        "stop" : 1625995663792,
        "duration" : 0
      }
    } ]
  },
  "515702d6a37ce45e71df528ea150fa8e" : {
    "statistic" : {
      "failed" : 1,
      "broken" : 0,
      "skipped" : 0,
      "passed" : 0,
      "unknown" : 0,
      "total" : 1
    },
    "items" : [ {
      "uid" : "2e5341f07dc36451",
      "status" : "failed",
      "statusDetails" : "AssertionError: assert 4 == 5",
      "time" : {
        "start" : 1625995663700,
        "stop" : 1625995663700,
        "duration" : 0
      }
    } ]
  },
  "c382c31cce2f4dfd1087ac23af8028e4" : {
    "statistic" : {
      "failed" : 0,
      "broken" : 0,
      "skipped" : 0,
      "passed" : 1,
      "unknown" : 0,
      "total" : 1
    },
    "items" : [ {
      "uid" : "365ab674d76c4572",
      "status" : "passed",
      "time" : {
        "start" : 1625995663802,
        "stop" : 1625995663802,
        "duration" : 0
      }
    } ]
  },
  "9d14e210b3d4a50588ce523529dc1924" : {
    "statistic" : {
      "failed" : 0,
      "broken" : 0,
      "skipped" : 0,
      "passed" : 1,
      "unknown" : 0,
      "total" : 1
    },
    "items" : [ {
      "uid" : "43811be9060e666e",
      "status" : "passed",
      "time" : {
        "start" : 1625995663693,
        "stop" : 1625995663693,
        "duration" : 0
      }
    } ]
  },
  "ad322829dafaf1494e7f6306b895eab8" : {
    "statistic" : {
      "failed" : 0,
      "broken" : 0,
      "skipped" : 0,
      "passed" : 1,
      "unknown" : 0,
      "total" : 1
    },
    "items" : [ {
      "uid" : "5863783fb7b146d2",
      "status" : "passed",
      "time" : {
        "start" : 1625995663834,
        "stop" : 1625995663834,
        "duration" : 0
      }
    } ]
  }
}