{
  "uid" : "4b4757e66a1912dae1a509f688f20b0f",
  "name" : "categories",
  "children" : [ {
    "name" : "Product defects",
    "children" : [ {
      "name" : "AssertionError: assert 4 == 5",
      "children" : [ {
        "name" : "测试相加",
        "uid" : "2e5341f07dc36451",
        "parentUid" : "25fb5725cd90778d1f247afffc1b2af1",
        "status" : "failed",
        "time" : {
          "start" : 1625995663700,
          "stop" : 1625995663700,
          "duration" : 0
        },
        "flaky" : false,
        "newFailed" : false,
        "parameters" : [ "3", "1", "5" ]
      } ],
      "uid" : "25fb5725cd90778d1f247afffc1b2af1"
    }, {
      "name" : "AssertionError: assert 1 == 2",
      "children" : [ {
        "name" : "测试相加减",
        "uid" : "a9d5540200cec8f3",
        "parentUid" : "d89f5ad50f342bab320c0753c9baac45",
        "status" : "failed",
        "time" : {
          "start" : 1625995663805,
          "stop" : 1625995663806,
          "duration" : 1
        },
        "flaky" : false,
        "newFailed" : false,
        "parameters" : [ "2", "1", "2" ]
      } ],
      "uid" : "d89f5ad50f342bab320c0753c9baac45"
    }, {
      "name" : "AssertionError: assert 6 == 5",
      "children" : [ {
        "name" : "测试相乘",
        "uid" : "278e8a8fad528957",
        "parentUid" : "409c1ee7b0f82744ff2b613a581dd576",
        "status" : "failed",
        "time" : {
          "start" : 1625995663827,
          "stop" : 1625995663827,
          "duration" : 0
        },
        "flaky" : false,
        "newFailed" : false,
        "parameters" : [ "2", "3", "5" ]
      } ],
      "uid" : "409c1ee7b0f82744ff2b613a581dd576"
    }, {
      "name" : "AssertionError: assert 1.5 == 1",
      "children" : [ {
        "name" : "测试相除",
        "uid" : "d7077bdd51e8b1e2",
        "parentUid" : "2abd140a398af991059d0f3ca024b199",
        "status" : "failed",
        "time" : {
          "start" : 1625995663847,
          "stop" : 1625995663848,
          "duration" : 1
        },
        "flaky" : false,
        "newFailed" : false,
        "parameters" : [ "3", "2", "1" ]
      } ],
      "uid" : "2abd140a398af991059d0f3ca024b199"
    } ],
    "uid" : "8fb3a91ba5aaf9de24cc8a92edc82b5d"
  } ]
}