{
  "uid" : "ab17fc5a4eb3bca4b216b548c7f9fcbc",
  "name" : "timeline",
  "children" : [ {
    "name" : "LAPTOP-1BPDFR1V",
    "children" : [ {
      "name" : "131500-MainThread",
      "children" : [ {
        "name" : "测试相除",
        "uid" : "e0e16bab93f9bf29",
        "parentUid" : "85403c5654d925c060abdb1f201fafe5",
        "status" : "passed",
        "time" : {
          "start" : 1625995663841,
          "stop" : 1625995663841,
          "duration" : 0
        },
        "flaky" : false,
        "newFailed" : false,
        "parameters" : [ "0.3", "0.1", "3" ]
      }, {
        "name" : "测试相乘",
        "uid" : "278e8a8fad528957",
        "parentUid" : "85403c5654d925c060abdb1f201fafe5",
        "status" : "failed",
        "time" : {
          "start" : 1625995663827,
          "stop" : 1625995663827,
          "duration" : 0
        },
        "flaky" : false,
        "newFailed" : false,
        "parameters" : [ "2", "3", "5" ]
      }, {
        "name" : "测试相加",
        "uid" : "2e5341f07dc36451",
        "parentUid" : "85403c5654d925c060abdb1f201fafe5",
        "status" : "failed",
        "time" : {
          "start" : 1625995663700,
          "stop" : 1625995663700,
          "duration" : 0
        },
        "flaky" : false,
        "newFailed" : false,
        "parameters" : [ "3", "1", "5" ]
      }, {
        "name" : "测试相除",
        "uid" : "5863783fb7b146d2",
        "parentUid" : "85403c5654d925c060abdb1f201fafe5",
        "status" : "passed",
        "time" : {
          "start" : 1625995663834,
          "stop" : 1625995663834,
          "duration" : 0
        },
        "flaky" : false,
        "newFailed" : false,
        "parameters" : [ "2", "1", "2" ]
      }, {
        "name" : "测试相乘",
        "uid" : "1cdc34a7b413014f",
        "parentUid" : "85403c5654d925c060abdb1f201fafe5",
        "status" : "passed",
        "time" : {
          "start" : 1625995663823,
          "stop" : 1625995663823,
          "duration" : 0
        },
        "flaky" : false,
        "newFailed" : false,
        "parameters" : [ "-2", "-1", "2" ]
      }, {
        "name" : "测试相加减",
        "uid" : "965e733f1b17f3b3",
        "parentUid" : "85403c5654d925c060abdb1f201fafe5",
        "status" : "passed",
        "time" : {
          "start" : 1625995663792,
          "stop" : 1625995663792,
          "duration" : 0
        },
        "flaky" : false,
        "newFailed" : false,
        "parameters" : [ "2", "1", "1" ]
      }, {
        "name" : "测试相除",
        "uid" : "485fbaf2284a6f2e",
        "parentUid" : "85403c5654d925c060abdb1f201fafe5",
        "status" : "passed",
        "time" : {
          "start" : 1625995663837,
          "stop" : 1625995663838,
          "duration" : 1
        },
        "flaky" : false,
        "newFailed" : false,
        "parameters" : [ "0.1", "0.1", "1" ]
      }, {
        "name" : "测试相加",
        "uid" : "6cda50ce074778a6",
        "parentUid" : "85403c5654d925c060abdb1f201fafe5",
        "status" : "passed",
        "time" : {
          "start" : 1625995663690,
          "stop" : 1625995663690,
          "duration" : 0
        },
        "flaky" : false,
        "newFailed" : false,
        "parameters" : [ "0.1", "0.1", "0.2" ]
      }, {
        "name" : "测试相乘",
        "uid" : "e38307d3de79a664",
        "parentUid" : "85403c5654d925c060abdb1f201fafe5",
        "status" : "passed",
        "time" : {
          "start" : 1625995663815,
          "stop" : 1625995663816,
          "duration" : 1
        },
        "flaky" : false,
        "newFailed" : false,
        "parameters" : [ "0.1", "0.1", "0.01" ]
      }, {
        "name" : "测试相加减",
        "uid" : "d10ef080087d8014",
        "parentUid" : "85403c5654d925c060abdb1f201fafe5",
        "status" : "passed",
        "time" : {
          "start" : 1625995663799,
          "stop" : 1625995663799,
          "duration" : 0
        },
        "flaky" : false,
        "newFailed" : false,
        "parameters" : [ "0.3", "0.1", "0.2" ]
      }, {
        "name" : "测试相加减",
        "uid" : "365ab674d76c4572",
        "parentUid" : "85403c5654d925c060abdb1f201fafe5",
        "status" : "passed",
        "time" : {
          "start" : 1625995663802,
          "stop" : 1625995663802,
          "duration" : 0
        },
        "flaky" : false,
        "newFailed" : false,
        "parameters" : [ "-2", "-1", "-1" ]
      }, {
        "name" : "测试相除",
        "uid" : "9b10e3380713110c",
        "parentUid" : "85403c5654d925c060abdb1f201fafe5",
        "status" : "passed",
        "time" : {
          "start" : 1625995663844,
          "stop" : 1625995663844,
          "duration" : 0
        },
        "flaky" : false,
        "newFailed" : false,
        "parameters" : [ "-2", "-1", "2" ]
      }, {
        "name" : "测试相加",
        "uid" : "f3fb3070c4b8a8ff",
        "parentUid" : "85403c5654d925c060abdb1f201fafe5",
        "status" : "passed",
        "time" : {
          "start" : 1625995663696,
          "stop" : 1625995663696,
          "duration" : 0
        },
        "flaky" : false,
        "newFailed" : false,
        "parameters" : [ "-2", "1", "-1" ]
      }, {
        "name" : "测试相加减",
        "uid" : "a9d5540200cec8f3",
        "parentUid" : "85403c5654d925c060abdb1f201fafe5",
        "status" : "failed",
        "time" : {
          "start" : 1625995663805,
          "stop" : 1625995663806,
          "duration" : 1
        },
        "flaky" : false,
        "newFailed" : false,
        "parameters" : [ "2", "1", "2" ]
      }, {
        "name" : "测试相加",
        "uid" : "43811be9060e666e",
        "parentUid" : "85403c5654d925c060abdb1f201fafe5",
        "status" : "passed",
        "time" : {
          "start" : 1625995663693,
          "stop" : 1625995663693,
          "duration" : 0
        },
        "flaky" : false,
        "newFailed" : false,
        "parameters" : [ "0.3", "1", "1.3" ]
      }, {
        "name" : "测试相加",
        "uid" : "372c69c00ee40c9a",
        "parentUid" : "85403c5654d925c060abdb1f201fafe5",
        "status" : "passed",
        "time" : {
          "start" : 1625995663686,
          "stop" : 1625995663686,
          "duration" : 0
        },
        "flaky" : false,
        "newFailed" : false,
        "parameters" : [ "1", "1", "2" ]
      }, {
        "name" : "测试相加减",
        "uid" : "407bc6b7d7adc129",
        "parentUid" : "85403c5654d925c060abdb1f201fafe5",
        "status" : "passed",
        "time" : {
          "start" : 1625995663796,
          "stop" : 1625995663796,
          "duration" : 0
        },
        "flaky" : false,
        "newFailed" : false,
        "parameters" : [ "0.1", "0.1", "0" ]
      }, {
        "name" : "测试相乘",
        "uid" : "16ef82393c6130e7",
        "parentUid" : "85403c5654d925c060abdb1f201fafe5",
        "status" : "passed",
        "time" : {
          "start" : 1625995663812,
          "stop" : 1625995663812,
          "duration" : 0
        },
        "flaky" : false,
        "newFailed" : false,
        "parameters" : [ "2", "1", "2" ]
      }, {
        "name" : "测试相除",
        "uid" : "d7077bdd51e8b1e2",
        "parentUid" : "85403c5654d925c060abdb1f201fafe5",
        "status" : "failed",
        "time" : {
          "start" : 1625995663847,
          "stop" : 1625995663848,
          "duration" : 1
        },
        "flaky" : false,
        "newFailed" : false,
        "parameters" : [ "3", "2", "1" ]
      }, {
        "name" : "测试相乘",
        "uid" : "84b88b86097bbbc0",
        "parentUid" : "85403c5654d925c060abdb1f201fafe5",
        "status" : "passed",
        "time" : {
          "start" : 1625995663819,
          "stop" : 1625995663819,
          "duration" : 0
        },
        "flaky" : false,
        "newFailed" : false,
        "parameters" : [ "0.3", "0.1", "0.03" ]
      } ],
      "uid" : "85403c5654d925c060abdb1f201fafe5"
    } ],
    "uid" : "cb5051514b6d4dc52802dc0165a5b9b7"
  } ]
}